A
B
C
D
E
F
G
H
I
J
K
L
M
N
O
P
Q
R
S
T
U
V
W
X
Y
Z
A,B,611
A,C,2671
A,D,8742
A,E,4462
A,F,5926
A,G,11012
A,H,11176
A,I,13859
A,J,12988
A,K,2815
A,L,3416
A,M,8527
A,N,9891
A,O,574
A,P,11840
A,Q,3075
A,R,14315
A,S,2011
A,T,8289
A,U,14862
A,V,2997
A,W,11264
A,X,4097
A,Y,2919
A,Z,11792
B,C,9913
B,D,5155
B,E,2745
B,F,13695
B,G,597
B,H,4865
B,I,12025
B,J,3007
B,K,4232
B,L,12412
B,M,12223
B,N,2076
B,O,14488
B,P,588
B,Q,11095
B,R,9547
B,S,14050
B,T,8171
B,U,7491
B,V,9026
B,W,2817
B,X,12779
B,Y,14799
B,Z,10916
C,D,4386
C,E,4856
C,F,448
C,G,10185
C,H,5718
C,I,5736
C,J,4753
C,K,6114
C,L,989
C,M,5935
C,N,12188
C,O,12113
C,P,2308
C,Q,1559
C,R,170
C,S,12110
C,T,12906
C,U,14205
C,V,14663
C,W,1199
C,X,12549
C,Y,4071
C,Z,14389
D,E,10311
D,F,14740
D,G,8657
D,H,10019
D,I,6359
D,J,13088
D,K,6422
D,L,5185
D,M,5395
D,N,9612
D,O,4140
D,P,12363
D,Q,795
D,R,2166
D,S,9104
D,T,1960
D,U,7249
D,V,1873
D,W,8361
D,X,7309
D,Y,3938
D,Z,12552
E,F,9617
E,G,4243
E,H,3309
E,I,9017
E,J,12429
E,K,5074
E,L,8345
E,M,4172
E,N,8653
E,O,7736
E,P,1652
E,Q,2055
E,R,9903
E,S,14483
E,T,3085
E,U,6871
E,V,11126
E,W,2102
E,X,6907
E,Y,2781
E,Z,6512
F,G,13315
F,H,3855
F,I,12850
F,J,12486
F,K,11429
F,L,10795
F,M,3321
F,N,5420
F,O,3529
F,P,6430
F,Q,11399
F,R,4040
F,S,12177
F,T,9936
F,U,4009
F,V,6767
F,W,6828
F,X,8015
F,Y,7355
F,Z,12443
G,H,7846
G,I,2365
G,J,7856
G,K,9569
G,L,3399
G,M,6568
G,N,11451
G,O,9086
G,P,1298
G,Q,7129
G,R,14841
G,S,4426
G,T,8612
G,U,6368
G,V,6808
G,W,12181
G,X,9455
G,Y,12788
G,Z,7280
H,I,13653
H,J,2235
H,K,1553
H,L,3645
H,M,2578
H,N,3584
H,O,14906
H,P,1558
H,Q,2729
H,R,11402
H,S,11654
H,T,8573
H,U,5140
H,V,12688
H,W,7782
H,X,11371
H,Y,12698
H,Z,5355
I,J,10524
I,K,2296
I,L,4651
I,M,13592
I,N,1552
I,O,11699
I,P,7556
I,Q,2099
I,R,5964
I,S,10260
I,T,13081
I,U,13928
I,V,6007
I,W,9036
I,X,5920
I,Y,13382
I,Z,6935
J,K,3413
J,L,2362
J,M,7003
J,N,11183
J,O,724
J,P,13069
J,Q,3278
J,R,624
J,S,6791
J,T,4132
J,U,5445
J,V,13444
J,W,2140
J,X,14720
J,Y,10027
J,Z,7494
K,L,10320
K,M,14743
K,N,1629
K,O,3908
K,P,2633
K,Q,5019
K,R,14346
K,S,5878
K,T,7457
K,U,11278
K,V,13941
K,W,4585
K,X,12159
K,Y,13865
K,Z,2376
L,M,10308
L,N,8787
L,O,14980
L,P,199
L,Q,212
L,R,10414
L,S,1663
L,T,1286
L,U,11363
L,V,8020
L,W,6775
L,X,4999
L,Y,3267
L,Z,14791
M,N,7069
M,O,8388
M,P,5016
M,Q,5761
M,R,392
M,S,10053
M,T,5547
M,U,11862
M,V,4595
M,W,10615
M,X,8562
M,Y,14883
M,Z,3233
N,O,9938
N,P,2133
N,Q,9039
N,R,1084
N,S,14661
N,T,12212
N,U,188
N,V,13973
N,W,7495
N,X,14989
N,Y,7242
N,Z,4893
O,P,460
O,Q,6417
O,R,3609
O,S,2850
O,T,13715
O,U,14438
O,V,8416
O,W,8766
O,X,13425
O,Y,10191
O,Z,7927
P,Q,12002
P,R,4172
P,S,5767
P,T,7541
P,U,9023
P,V,12293
P,W,10556
P,X,9559
P,Y,9677
P,Z,8562
Q,R,2104
Q,S,10974
Q,T,2340
Q,U,10535
Q,V,14068
Q,W,8908
Q,X,6167
Q,Y,14753
Q,Z,8933
R,S,11986
R,T,11418
R,U,14526
R,V,2384
R,W,12729
R,X,5368
R,Y,4877
R,Z,2881
S,T,14259
S,U,4671
S,V,14574
S,W,4015
S,X,11429
S,Y,4503
S,Z,9877
T,U,1572
T,V,9460
T,W,1885
T,X,7824
T,Y,6928
T,Z,13400
U,V,14726
U,W,11042
U,X,37
U,Y,1145
U,Z,1190
V,W,12147
V,X,2622
V,Y,4669
V,Z,5033
W,X,2862
W,Y,4808
W,Z,14860
X,Y,10281
X,Z,1072
Y,Z,10362